<svg xmlns="http://www.w3.org/2000/svg" width="1326.81" height="16.617" viewBox="0 0 1326.81 16.617">
  <path id="Path_20064" data-name="Path 20064" d="M-6609.295,780.273l-109.308,1.94-223.54.419-166.866-1.289-160.539-2.153-48.836-.638h-29.339l-18.724-.544H-7426.3l-110.557,1.177h-36.566l-18.855.589-63.427,1.569-33.732.755-45.05,1.509-44.5,1.434s-65.056,2.566-64.485,2.566-71.909,2.977-72.248,2.977S-7936,791.626-7936,791.626" transform="translate(7936.078 -776.507)" fill="none" stroke="#6699A5" stroke-linejoin="round" stroke-width="3"/>
</svg>
