<svg xmlns="http://www.w3.org/2000/svg" width="390.744" height="6.647" viewBox="0 0 390.744 6.647">
  <path id="Path_20068" data-name="Path 20068" d="M-7936,781.049l32.186-.52,65.821-.112,49.134.345,47.271.577,14.38.171h8.639l5.514.146h17.623l32.553-.315h10.768l5.551-.158,18.677-.42,9.933-.2,13.265-.4,13.1-.384s19.155-.687,18.987-.687,21.173-.8,21.273-.8,5.973-.28,5.973-.28" transform="translate(7936.024 -776.509)" fill="none" stroke="#6699A5" stroke-linejoin="round" stroke-width="3"/>
</svg>
