<svg xmlns="http://www.w3.org/2000/svg" width="1326.81" height="16.617" viewBox="0 0 1326.81 16.617">
  <path id="Path_20063" data-name="Path 20063" d="M-7936,789.36l109.307-1.939,223.541-.419,166.866,1.289,160.539,2.153,48.836.638h29.34l18.724.544H-7119l110.557-1.177h36.567l18.854-.589,63.428-1.569,33.731-.754,45.05-1.509,44.5-1.434s65.056-2.566,64.485-2.566,71.909-2.977,72.248-2.977,20.285-1.045,20.285-1.045" transform="translate(7936.026 -776.509)" fill="none" stroke="#6699A5" stroke-linejoin="round" stroke-width="3"/>
</svg>
